%YAML 1.1
%TAG !u! tag:unity3d.com,2011:
--- !u!114 &11400000
MonoBehaviour:
  m_ObjectHideFlags: 0
  m_CorrespondingSourceObject: {fileID: 0}
  m_PrefabInstance: {fileID: 0}
  m_PrefabAsset: {fileID: 0}
  m_GameObject: {fileID: 0}
  m_Enabled: 1
  m_EditorHideFlags: 0
  m_Script: {fileID: 11500000, guid: 934568c8c5c8e48879837bbdf589310c, type: 3}
  m_Name: Settings
  m_EditorClassIdentifier: 
  DEATH_HEIGHT: -10
  CAM_HEIGHT: 0
  MAX_VEL_PL: 2
